{
    "genreLimit": 4,
    "genreUsers": 10,
    "genreExclude": [
            "owned", "books-i-own", "owned-books", "my-books", "my-library",
            "books", "audio", "ebook", "ebooks", "e-books", "e-book",
            "kindle", "kindle-unlimited", "kindle-books", "nook-books", "nook", "kobo", "calibre",
            "library", "default", "favorites", "favourites", "to-buy", "english", "british",
            "general", "series", "audible", "nope", "hell-no", "not-interested", "have",
            "giveaways", "dnf", "ya", "wish-list", "s2e", "non", "1", "sub", "fantascienza"
            ],
    "genreExcludeParts": ["read-", "-read", "-press", "2017", "2018", "2019"],
    "genreReplace": {"humor": "humour",
                "science-fiction": "sci-fi",
                "scifi": "sci-fi",
                "sf": "sci-fi",
                "math": "mathematics",
                "nonfiction": "non-fiction",
                "children": "childrens",
                "children-s": "childrens",
                "children-s-books": "childrens",
                "graphic-novel": "graphic-novels",
                "40k": "warhammer-40k",
                "audiobook": "audiobooks",
                "audio-book": "audiobooks",
                "audio-books": "audiobooks",
                "cookbook": "cookbooks",
                "cook-book": "cookbooks",
                "cook-books": "cookbooks",
                "cookery": "cooking",
                "cómics": "comics",
                "marvel": "marvel-comics",
                "dc": "dc-comics",
                "tudor": "tudors",
                "hist": "history",
                "1001": "1001-books",
                "ww2": "world-war-2",
                "world-war-ii": "world-war-2",
                "women-s-murder-club": "womens-murder-club",
                "alex-cross-series": "alex-cross",
                "michael-bennett-series": "michael-bennett",
                "james-patterson-michael-bennett": "michael-bennett",
                "rory-gilmore": "rory-gilmore-challenge",
                "rory-gilmore-reading-list": "rory-gilmore-challenge",
                "gilmore-girls-reading-list": "rory-gilmore-challenge",
                "gilmore-girls": "rory-gilmore-challenge",
                "rory-gilmore-reading-challenge": "rory-gilmore-challenge"
                }
}
